…
```
> get_data_from_izmir("izmir-ili-arac-sayim-verileri")
# A tibble: 11,441 x 8
   TARIH ANA_ARTER_ADI     ISTIKAMET    BASLAMA BITIS ARAC_SAYISI EK_SERIT ACIKLAMA
   <dbl> <chr>             <chr>          <dbl> <dbl>       <dbl>    <dbl> <chr>   
 1 44058 Yeşildere Caddesi Konak Merkez   0.333 0.354        1462        0 NA      
 2 44058 Yeşildere Caddesi Gaziemir       0.75  0.771        1908        0 NA      
 3 44059 Yeşildere Caddesi Konak Merkez   0.333 0.354         574        0 NA      
 4 44059 Yeşildere Caddesi Gaziemir       0.75  0.771        1398        0 NA      
 5 44060 Yeşildere Caddesi Konak Merkez   0.333 0.354        1224        0 NA      
 6 44061 Yeşildere Caddesi Gaziemir       0.75  0.771        2594        0 NA      
 7 44062 Yeşildere Caddesi Konak Merkez   0.333 0.354        1287        0 NA      
 8 44062 Yeşildere Caddesi Gaziemir       0.75  0.771        2434        0 NA      
 9 44063 Yeşildere Caddesi Konak Merkez   0.333 0.354        1411        0 NA      
10 44063 Yeşildere Caddesi Gaziemir       0.75  0.771        2555        0 NA      
# ... with 11,431 more rows
# i Use `print(n = ...)` to see more rows
``` 
…
